Fitting Linear Models
…
bike_data <- readr::read_csv("https://www4.stat.ncsu.edu/~online/datasets/SeoulBikeData.csv",
                             locale=locale(encoding="latin1"))

Rows: 8760 Columns: 14
── Column specification ────────────────────────────────────────────────────────
Delimiter: ","
chr  (4): Date, Seasons, Holiday, Functioning Day
dbl (10): Rented Bike Count, Hour, Temperature(°C), Humidity(%), Wind speed ...

ℹ Use `spec()` to retrieve the full column specification for this data.
ℹ Specify the column types or set `show_col_types = FALSE` to quiet this message.

bike_data

# A tibble: 8,760 × 14
   Date       `Rented Bike Count`  Hour `Temperature(°C)` `Humidity(%)`
   <chr>                    <dbl> <dbl>             <dbl>         <dbl>
 1 01/12/2017                 254     0              -5.2            37
 2 01/12/2017                 204     1              -5.5            38
 3 01/12/2017                 173     2              -6              39
 4 01/12/2017                 107     3              -6.2            40
 5 01/12/2017                  78     4              -6              36
 6 01/12/2017                 100     5              -6.4            37
 7 01/12/2017                 181     6              -6.6            35
 8 01/12/2017                 460     7              -7.4            38
 9 01/12/2017                 930     8              -7.6            37
10 01/12/2017                 490     9              -6.5            27
# ℹ 8,750 more rows
# ℹ 9 more variables: `Wind speed (m/s)` <dbl>, `Visibility (10m)` <dbl>,
#   `Dew point temperature(°C)` <dbl>, `Solar Radiation (MJ/m2)` <dbl>,
#   `Rainfall(mm)` <dbl>, `Snowfall (cm)` <dbl>, Seasons <chr>, Holiday <chr>,
#   `Functioning Day` <chr>
…
From our investigation on the summaries of the numeric variables, most of them make sense. However, we may want to investigate the Snowfall and Rainfall variables further.

3. Convert the Date column into an actual date (if need be). Recall the lubridate package.

We noticed in our unique character values investigation that the Date variable is originally in the “DD/MM/YYYY” format and thus needs to be converted to a date variable with lubridate::dmy().

library(lubridate)

bike_data$Date <- dmy(bike_data$Date)
bike_data

# A tibble: 8,760 × 14
   Date       `Rented Bike Count`  Hour `Temperature(°C)` `Humidity(%)`
   <date>                   <dbl> <dbl>             <dbl>         <dbl>
 1 2017-12-01                 254     0              -5.2            37
 2 2017-12-01                 204     1              -5.5            38
 3 2017-12-01                 173     2              -6              39
 4 2017-12-01                 107     3              -6.2            40
 5 2017-12-01                  78     4              -6              36
 6 2017-12-01                 100     5              -6.4            37
 7 2017-12-01                 181     6              -6.6            35
 8 2017-12-01                 460     7              -7.4            38
 9 2017-12-01                 930     8              -7.6            37
10 2017-12-01                 490     9              -6.5            27
# ℹ 8,750 more rows
# ℹ 9 more variables: `Wind speed (m/s)` <dbl>, `Visibility (10m)` <dbl>,
#   `Dew point temperature(°C)` <dbl>, `Solar Radiation (MJ/m2)` <dbl>,
#   `Rainfall(mm)` <dbl>, `Snowfall (cm)` <dbl>, Seasons <chr>, Holiday <chr>,
#   `Functioning Day` <chr>

4. Turn the character variables (Seasons, Holiday, and Functioning Day) into factors.

We can then turn the character variables into factors with as.factor().

bike_data <- bike_data |>
  mutate(Seasons = as.factor(Seasons),
         Holiday = as.factor(Holiday),
         `Functioning Day` = as.factor(`Functioning Day`))
bike_data

# A tibble: 8,760 × 14
   Date       `Rented Bike Count`  Hour `Temperature(°C)` `Humidity(%)`
   <date>                   <dbl> <dbl>             <dbl>         <dbl>
 1 2017-12-01                 254     0              -5.2            37
 2 2017-12-01                 204     1              -5.5            38
 3 2017-12-01                 173     2              -6              39
 4 2017-12-01                 107     3              -6.2            40
 5 2017-12-01                  78     4              -6              36
 6 2017-12-01                 100     5              -6.4            37
 7 2017-12-01                 181     6              -6.6            35
 8 2017-12-01                 460     7              -7.4            38
 9 2017-12-01                 930     8              -7.6            37
10 2017-12-01                 490     9              -6.5            27
# ℹ 8,750 more rows
# ℹ 9 more variables: `Wind speed (m/s)` <dbl>, `Visibility (10m)` <dbl>,
#   `Dew point temperature(°C)` <dbl>, `Solar Radiation (MJ/m2)` <dbl>,
#   `Rainfall(mm)` <dbl>, `Snowfall (cm)` <dbl>, Seasons <fct>, Holiday <fct>,
#   `Functioning Day` <fct>
…
# A tibble: 2 × 8
  functioning_day mean_bike_count median_bike_count var_bike_count sd_bike_count
  <fct>                     <dbl>             <dbl>          <dbl>         <dbl>
1 No                           0                  0             0             0 
2 Yes                        729.               542        412615.          642.
# ℹ 3 more variables: IQR_bike_count <dbl>, min_bike_count <dbl>,
#   max_bike_count <dbl>

Here we notice something strange with our Functioning Day categorical variable for the No level, all of the numerical summaries are zero across this level. So we can subset our data to only include Functioning Day where the level is Yes.

bike_data <- bike_data |>
  filter(functioning_day == "Yes")
bike_data

# A tibble: 8,465 × 14
   date       bike_count  hour temperature humidity wind_speed visibility
   <date>          <dbl> <dbl>       <dbl>    <dbl>      <dbl>      <dbl>
 1 2017-12-01        254     0        -5.2       37        2.2       2000
 2 2017-12-01        204     1        -5.5       38        0.8       2000
 3 2017-12-01        173     2        -6         39        1         2000
 4 2017-12-01        107     3        -6.2       40        0.9       2000
 5 2017-12-01         78     4        -6         36        2.3       2000
 6 2017-12-01        100     5        -6.4       37        1.5       2000
 7 2017-12-01        181     6        -6.6       35        1.3       2000
 8 2017-12-01        460     7        -7.4       38        0.9       2000
 9 2017-12-01        930     8        -7.6       37        1.1       2000
10 2017-12-01        490     9        -6.5       27        0.5       1928
# ℹ 8,455 more rows
# ℹ 7 more variables: dew_point_temp <dbl>, solar_radiation <dbl>,
#   rainfall <dbl>, snowfall <dbl>, seasons <fct>, holiday <fct>,
#   functioning_day <fct>
…
`summarise()` has grouped output by 'date', 'seasons'. You can override using
the `.groups` argument.

daily_data

# A tibble: 353 × 12
# Groups:   date, seasons [353]
   date       seasons holiday    total_bike_count total_rainfall total_snowfall
   <date>     <fct>   <fct>                 <dbl>          <dbl>          <dbl>
 1 2017-12-01 Winter  No Holiday             9539            0              0  
 2 2017-12-02 Winter  No Holiday             8523            0              0  
 3 2017-12-03 Winter  No Holiday             7222            4              0  
 4 2017-12-04 Winter  No Holiday             8729            0.1            0  
 5 2017-12-05 Winter  No Holiday             8307            0              0  
 6 2017-12-06 Winter  No Holiday             6669            1.3            8.6
 7 2017-12-07 Winter  No Holiday             8549            0             10.4
 8 2017-12-08 Winter  No Holiday             8032            0              0  
 9 2017-12-09 Winter  No Holiday             7233            0              0  
10 2017-12-10 Winter  No Holiday             3453            4.1           32.5
# ℹ 343 more rows
# ℹ 6 more variables: average_temp <dbl>, average_humidity <dbl>,
#   average_wind_speed <dbl>, average_visibility <dbl>,
#   average_dew_point_temp <dbl>, average_solar_radiation <dbl>
…
From using last_fit() we see that our RMSE on the test set is 2961.0537.

• Obtain the final model (fit on the entire training set) coefficient table using extract_fit_parsnip() and tidy().

final_coefficients <- final_fit |>
  extract_fit_parsnip() |>
  tidy()
final_coefficients

# A tibble: 32 × 5
   term                                estimate std.error statistic  p.value
   <chr>                                  <dbl>     <dbl>     <dbl>    <dbl>
 1 (Intercept)                           15069.     2182.     6.91  4.75e-11
 2 seasons_Spring                        -6689.     3705.    -1.81  7.23e- 2
 3 seasons_Summer                        18999.     7805.     2.43  1.57e- 2
 4 seasons_Winter                        17284.     9420.     1.83  6.78e- 2
 5 holiday_No.Holiday                     6285.     2054.     3.06  2.47e- 3
 6 day_type_Weekend                      -2550.      394.    -6.47  5.67e-10
 7 seasons_Spring_x_holiday_No.Holiday    2017.     3741.     0.539 5.90e- 1
 8 seasons_Summer_x_holiday_No.Holiday   -5302.     7706.    -0.688 4.92e- 1
 9 seasons_Winter_x_holiday_No.Holiday  -29446.     9420.    -3.13  2.00e- 3
10 seasons_Spring_x_average_temp          4271.     1115.     3.83  1.65e- 4
# ℹ 22 more rows
